CSV data
…
Wrangle the data and questions

Now I want to use the column names from the second data_frame and rename the same columsn in the first data frame.

my_colnames_vec <- colnames(my_df_colnames_and_questions)

colnames(my_student_sat_csv) <- my_colnames_vec

My data

now I can see my data with the transformed variable names

my_student_sat_csv

# A tibble: 25 × 32
   start_date          end_date            status      ip_address progress
   <dttm>              <dttm>              <chr>       <lgl>         <dbl>
 1 2023-01-21 08:50:45 2023-01-21 08:50:45 Survey Test NA              100
 2 2023-01-21 08:50:48 2023-01-21 08:50:48 Survey Test NA              100
 3 2023-01-21 08:50:48 2023-01-21 08:50:48 Survey Test NA              100
 4 2023-01-21 08:50:48 2023-01-21 08:50:48 Survey Test NA              100
 5 2023-01-21 08:50:49 2023-01-21 08:50:49 Survey Test NA              100
 6 2023-01-21 08:50:49 2023-01-21 08:50:49 Survey Test NA              100
 7 2023-01-21 08:50:49 2023-01-21 08:50:49 Survey Test NA              100
 8 2023-01-21 08:50:49 2023-01-21 08:50:49 Survey Test NA              100
 9 2023-01-21 08:50:50 2023-01-21 08:50:50 Survey Test NA              100
10 2023-01-21 08:50:50 2023-01-21 08:50:50 Survey Test NA              100
# ℹ 15 more rows
# ℹ 27 more variables: duration_in_seconds <dbl>, finished <lgl>,
#   recorded_date <dttm>, response_id <chr>, recipient_last_name <lgl>,
#   recipient_first_name <lgl>, recipient_email <lgl>,
#   external_reference <lgl>, location_latitude <dbl>,
#   location_longitude <dbl>, distribution_channel <chr>, user_language <lgl>,
#   q1 <chr>, q2 <chr>, q3 <chr>, q4 <chr>, q5 <chr>, q6 <chr>, q7 <chr>, …
…
